[{"page":1,"pages":2,"per_page":50,"total":64,"sourceid":"2","lastupdated":"2025-04-15"},[{"indicator":{"id":"NY.GDP.MKTP.CD","value":"GDP (current US$)"},"country":{"id":"FR","value":"France"},"countryiso3code":"FRA","date":"2023","value":3051831611384.76,"unit":"","obs_status":"","decimal":0},{"indicator":{"id":"NY.GDP.MKTP.CD","value":"GDP (current US$)"},"country":{"id":"FR","value":"France"},"countryiso3code":"FRA","date":"2022","value":2796302210398.84,"unit":"","obs_status":"","decimal":0},{"indicator":{"id":"NY.GDP.MKTP.CD","value":"GDP (current US$)"},"country":{"id":"FR","value":"France"},"countryiso3code":"FRA","date":"2021","value":2966433692008.09,"unit":"","obs_status":"","decimal":0},{"indicator":{"id":"NY.GDP.MKTP.CD","value":"GDP (current US$)"},"country":{"id":"FR","value":"France"},"countryiso3code":"FRA","date":"2020","value":2647926055110.05,"unit":"","obs_status":"","decimal":0},{"indicator":{"id":"NY.GDP.MKTP.CD","value":"GDP (current US$)"},"country":{"id":"FR","value":"France"},"countryiso3code":"FRA","date":"2019","value":2722793515171.76,"unit":"","obs_status":"","decimal":0},{"indicator":{"id":"NY.GDP.MKTP.CD","value":"GDP (current US$)"},"country":{"id":"FR","value":"France"},"countryiso3code":"FRA","date":"2018","value":2781576320884.39,"unit":"","obs_status":"","decimal":0},{"indicator":{"id":"NY.GDP.MKTP.CD","value":"GDP (current US$)"},"country":{"id":"FR","value":"France"},"countryiso3code":"FRA","date":"2017","value":2588868323334.71,"unit":"","obs_status":"","decimal":0},{"indicator":{"id":"NY.GDP.MKTP.CD","value":"GDP (current US$)"},"country":{"id":"FR","value":"France"},"countryiso3code":"FRA","date":"2016","value":2470407619777.13,"unit":"","obs_status":"","decimal":0},{"indicator":{"id":"NY.GDP.MKTP.CD","value":"GDP (current US$)"},"country":{"id":"FR","value":"France"},"countryiso3code":"FRA","date":"2015","value":2442483452642.5,"unit":"","obs_status":"","decimal":0},{"indicator":{"id":"NY.GDP.MKTP.CD","value":"GDP (current US$)"},"country":{"id":"FR","value":"France"},"countryiso3code":"FRA","date":"2014","value":2861236112552.42,"unit":"","obs_status":"","decimal":0},{"indicator":{"id":"NY.GDP.MKTP.CD","value":"GDP (current US$)"},"country":{"id":"FR","value":"France"},"countryiso3code":"FRA","date":"2013","value":2816077607875.26,"unit":"","obs_status":"","decimal":0},{"indicator":{"id":"NY.GDP.MKTP.CD","value":"GDP (current US$)"},"country":{"id":"FR","value":"France"},"countryiso3code":"FRA","date":"2012","value":2683007095787.23,"unit":"","obs_status":"","decimal":0},{"indicator":{"id":"NY.GDP.MKTP.CD","value":"GDP (current US$)"},"country":{"id":"FR","value":"France"},"countryiso3code":"FRA","date":"2011","value":2870408553990.28,"unit":"","obs_status":"","decimal":0},{"indicator":{"id":"NY.GDP.MKTP.CD","value":"GDP (current US$)"},"country":{"id":"FR","value":"France"},"countryiso3code":"FRA","date":"2010","value":2646230027988.34,"unit":"","obs_status":"","decimal":0},{"indicator":{"id":"NY.GDP.MKTP.CD","value":"GDP (current US$)"},"country":{"id":"FR","value":"France"},"countryiso3code":"FRA","date":"2009","value":2700075882518.98,"unit":"","obs_status":"","decimal":0},{"indicator":{"id":"NY.GDP.MKTP.CD","value":"GDP (current US$)"},"country":{"id":"FR","value":"France"},"countryiso3code":"FRA","date":"2008","value":2926802941585.86,"unit":"","obs_status":"","decimal":0},{"indicator":{"id":"NY.GDP.MKTP.CD","value":"GDP (current US$)"},"country":{"id":"FR","value":"France"},"countryiso3code":"FRA","date":"2007","value":2655816911866.56,"unit":"","obs_status":"","decimal":0},{"indicator":{"id":"NY.GDP.MKTP.CD","value":"GDP (current US$)"},"country":{"id":"FR","value":"France"},"countryiso3code":"FRA","date":"2006","value":2317861544690.82,"unit":"","obs_status":"","decimal":0},{"indicator":{"id":"NY.GDP.MKTP.CD","value":"GDP (current US$)"},"country":{"id":"FR","value":"France"},"countryiso3code":"FRA","date":"2005","value":2192146403028.17,"unit":"","obs_status":"","decimal":0},{"indicator":{"id":"NY.GDP.MKTP.CD","value":"GDP (current US$)"},"country":{"id":"FR","value":"France"},"countryiso3code":"FRA","date":"2004","value":2109792297237.03,"unit":"","obs_status":"","decimal":0},{"indicator":{"id":"NY.GDP.MKTP.CD","value":"GDP (current US$)"},"country":{"id":"FR","value":"France"},"countryiso3code":"FRA","date":"2003","value":1835095983049.09,"unit":"","obs_status":"","decimal":0},{"indicator":{"id":"NY.GDP.MKTP.CD","value":"GDP (current US$)"},"country":{"id":"FR","value":"France"},"countryiso3code":"FRA","date":"2002","value":1492427756382.43,"unit":"","obs_status":"","decimal":0},{"indicator":{"id":"NY.GDP.MKTP.CD","value":"GDP (current US$)"},"country":{"id":"FR","value":"France"},"countryiso3code":"FRA","date":"2001","value":1370376677298.86,"unit":"","obs_status":"","decimal":0},{"indicator":{"id":"NY.GDP.MKTP.CD","value":"GDP (current US$)"},"country":{"id":"FR","value":"France"},"countryiso3code":"FRA","date":"2000","value":1360959069477.49,"unit":"","obs_status":"","decimal":0},{"indicator":{"id":"NY.GDP.MKTP.CD","value":"GDP (current US$)"},"country":{"id":"FR","value":"France"},"countryiso3code":"FRA","date":"1999","value":1486915879701.93,"unit":"","obs_status":"","decimal":0},{"indicator":{"id":"NY.GDP.MKTP.CD","value":"GDP (current US$)"},"country":{"id":"FR","value":"France"},"countryiso3code":"FRA","date":"1998","value":1496906382032.47,"unit":"","obs_status":"","decimal":0},{"indicator":{"id":"NY.GDP.MKTP.CD","value":"GDP (current US$)"},"country":{"id":"FR","value":"France"},"countryiso3code":"FRA","date":"1997","value":1449392222971.45,"unit":"","obs_status":"","decimal":0},{"indicator":{"id":"NY.GDP.MKTP.CD","value":"GDP (current US$)"},"country":{"id":"FR","value":"France"},"countryiso3code":"FRA","date":"1996","value":1598889216566.23,"unit":"","obs_status":"","decimal":0},{"indicator":{"id":"NY.GDP.MKTP.CD","value":"GDP (current US$)"},"country":{"id":"FR","value":"France"},"countryiso3code":"FRA","date":"1995","value":1595219345511.89,"unit":"","obs_status":"","decimal":0},{"indicator":{"id":"NY.GDP.MKTP.CD","value":"GDP (current US$)"},"country":{"id":"FR","value":"France"},"countryiso3code":"FRA","date":"1994","value":1385822778827.98,"unit":"","obs_status":"","decimal":0},{"indicator":{"id":"NY.GDP.MKTP.CD","value":"GDP (current US$)"},"country":{"id":"FR","value":"France"},"countryiso3code":"FRA","date":"1993","value":1314383368079.69,"unit":"","obs_status":"","decimal":0},{"indicator":{"id":"NY.GDP.MKTP.CD","value":"GDP (current US$)"},"country":{"id":"FR","value":"France"},"countryiso3code":"FRA","date":"1992","value":1389663073110.28,"unit":"","obs_status":"","decimal":0},{"indicator":{"id":"NY.GDP.MKTP.CD","value":"GDP (current US$)"},"country":{"id":"FR","value":"France"},"countryiso3code":"FRA","date":"1991","value":1258961748633.88,"unit":"","obs_status":"","decimal":0},{"indicator":{"id":"NY.GDP.MKTP.CD","value":"GDP (current US$)"},"country":{"id":"FR","value":"France"},"countryiso3code":"FRA","date":"1990","value":1257649439826.53,"unit":"","obs_status":"","decimal":0},{"indicator":{"id":"NY.GDP.MKTP.CD","value":"GDP (current US$)"},"country":{"id":"FR","value":"France"},"countryiso3code":"FRA","date":"1989","value":1016742237302.08,"unit":"","obs_status":"","decimal":0},{"indicator":{"id":"NY.GDP.MKTP.CD","value":"GDP (current US$)"},"country":{"id":"FR","value":"France"},"countryiso3code":"FRA","date":"1988","value":1010827662151.75,"unit":"","obs_status":"","decimal":0},{"indicator":{"id":"NY.GDP.MKTP.CD","value":"GDP (current US$)"},"country":{"id":"FR","value":"France"},"countryiso3code":"FRA","date":"1987","value":926320855614.973,"unit":"","obs_status":"","decimal":0},{"indicator":{"id":"NY.GDP.MKTP.CD","value":"GDP (current US$)"},"country":{"id":"FR","value":"France"},"countryiso3code":"FRA","date":"1986","value":764946585850.933,"unit":"","obs_status":"","decimal":0},{"indicator":{"id":"NY.GDP.MKTP.CD","value":"GDP (current US$)"},"country":{"id":"FR","value":"France"},"countryiso3code":"FRA","date":"1985","value":547220981165.134,"unit":"","obs_status":"","decimal":0},{"indicator":{"id":"NY.GDP.MKTP.CD","value":"GDP (current US$)"},"country":{"id":"FR","value":"France"},"countryiso3code":"FRA","date":"1984","value":525033325827.516,"unit":"","obs_status":"","decimal":0},{"indicator":{"id":"NY.GDP.MKTP.CD","value":"GDP (current US$)"},"country":{"id":"FR","value":"France"},"countryiso3code":"FRA","date":"1983","value":553356312935.709,"unit":"","obs_status":"","decimal":0},{"indicator":{"id":"NY.GDP.MKTP.CD","value":"GDP (current US$)"},"country":{"id":"FR","value":"France"},"countryiso3code":"FRA","date":"1982","value":578152310609.841,"unit":"","obs_status":"","decimal":0},{"indicator":{"id":"NY.GDP.MKTP.CD","value":"GDP (current US$)"},"country":{"id":"FR","value":"France"},"countryiso3code":"FRA","date":"1981","value":609184791792.396,"unit":"","obs_status":"","decimal":0},{"indicator":{"id":"NY.GDP.MKTP.CD","value":"GDP (current US$)"},"country":{"id":"FR","value":"France"},"countryiso3code":"FRA","date":"1980","value":694529183483.39,"unit":"","obs_status":"","decimal":0},{"indicator":{"id":"NY.GDP.MKTP.CD","value":"GDP (current US$)"},"country":{"id":"FR","value":"France"},"countryiso3code":"FRA","date":"1979","value":608218624730.188,"unit":"","obs_status":"","decimal":0},{"indicator":{"id":"NY.GDP.MKTP.CD","value":"GDP (current US$)"},"country":{"id":"FR","value":"France"},"countryiso3code":"FRA","date":"1978","value":501724418604.651,"unit":"","obs_status":"","decimal":0},{"indicator":{"id":"NY.GDP.MKTP.CD","value":"GDP (current US$)"},"country":{"id":"FR","value":"France"},"countryiso3code":"FRA","date":"1977","value":406736454934.474,"unit":"","obs_status":"","decimal":0},{"indicator":{"id":"NY.GDP.MKTP.CD","value":"GDP (current US$)"},"country":{"id":"FR","value":"France"},"countryiso3code":"FRA","date":"1976","value":368488292816.171,"unit":"","obs_status":"","decimal":0},{"indicator":{"id":"NY.GDP.MKTP.CD","value":"GDP (current US$)"},"country":{"id":"FR","value":"France"},"countryiso3code":"FRA","date":"1975","value":356780728162.766,"unit":"","obs_status":"","decimal":0},{"indicator":{"id":"NY.GDP.MKTP.CD","value":"GDP (current US$)"},"country":{"id":"FR","value":"France"},"countryiso3code":"FRA","date":"1974","value":283102178123.295,"unit":"","obs_status":"","decimal":0}]]