[{"page":1,"pages":2,"per_page":50,"total":64,"sourceid":"2","lastupdated":"2025-04-15"},[{"indicator":{"id":"NY.GDP.MKTP.CD","value":"GDP (current US$)"},"country":{"id":"DE","value":"Germany"},"countryiso3code":"DEU","date":"2023","value":4525703903627.53,"unit":"","obs_status":"","decimal":0},{"indicator":{"id":"NY.GDP.MKTP.CD","value":"GDP (current US$)"},"country":{"id":"DE","value":"Germany"},"countryiso3code":"DEU","date":"2022","value":4163596357879.39,"unit":"","obs_status":"","decimal":0},{"indicator":{"id":"NY.GDP.MKTP.CD","value":"GDP (current US$)"},"country":{"id":"DE","value":"Germany"},"countryiso3code":"DEU","date":"2021","value":4348297440387.53,"unit":"","obs_status":"","decimal":0},{"indicator":{"id":"NY.GDP.MKTP.CD","value":"GDP (current US$)"},"country":{"id":"DE","value":"Germany"},"countryiso3code":"DEU","date":"2020","value":3940142541354.1,"unit":"","obs_status":"","decimal":0},{"indicator":{"id":"NY.GDP.MKTP.CD","value":"GDP (current US$)"},"country":{"id":"DE","value":"Germany"},"countryiso3code":"DEU","date":"2019","value":3957208055215.68,"unit":"","obs_status":"","decimal":0},{"indicator":{"id":"NY.GDP.MKTP.CD","value":"GDP (current US$)"},"country":{"id":"DE","value":"Germany"},"countryiso3code":"DEU","date":"2018","value":4052008447223.53,"unit":"","obs_status":"","decimal":0},{"indicator":{"id":"NY.GDP.MKTP.CD","value":"GDP (current US$)"},"country":{"id":"DE","value":"Germany"},"countryiso3code":"DEU","date":"2017","value":3763092263752.95,"unit":"","obs_status":"","decimal":0},{"indicator":{"id":"NY.GDP.MKTP.CD","value":"GDP (current US$)"},"country":{"id":"DE","value":"Germany"},"countryiso3code":"DEU","date":"2016","value":3537784107980.55,"unit":"","obs_status":"","decimal":0},{"indicator":{"id":"NY.GDP.MKTP.CD","value":"GDP (current US$)"},"country":{"id":"DE","value":"Germany"},"countryiso3code":"DEU","date":"2015","value":3423568450957.03,"unit":"","obs_status":"","decimal":0},{"indicator":{"id":"NY.GDP.MKTP.CD","value":"GDP (current US$)"},"country":{"id":"DE","value":"Germany"},"countryiso3code":"DEU","date":"2014","value":3965800686309.79,"unit":"","obs_status":"","decimal":0},{"indicator":{"id":"NY.GDP.MKTP.CD","value":"GDP (current US$)"},"country":{"id":"DE","value":"Germany"},"countryiso3code":"DEU","date":"2013","value":3808086291482.36,"unit":"","obs_status":"","decimal":0},{"indicator":{"id":"NY.GDP.MKTP.CD","value":"GDP (current US$)"},"country":{"id":"DE","value":"Germany"},"countryiso3code":"DEU","date":"2012","value":3597896500945.31,"unit":"","obs_status":"","decimal":0},{"indicator":{"id":"NY.GDP.MKTP.CD","value":"GDP (current US$)"},"country":{"id":"DE","value":"Germany"},"countryiso3code":"DEU","date":"2011","value":3824828563521.41,"unit":"","obs_status":"","decimal":0},{"indicator":{"id":"NY.GDP.MKTP.CD","value":"GDP (current US$)"},"country":{"id":"DE","value":"Germany"},"countryiso3code":"DEU","date":"2010","value":3468154343000.01,"unit":"","obs_status":"","decimal":0},{"indicator":{"id":"NY.GDP.MKTP.CD","value":"GDP (current US$)"},"country":{"id":"DE","value":"Germany"},"countryiso3code":"DEU","date":"2009","value":3479800820863.28,"unit":"","obs_status":"","decimal":0},{"indicator":{"id":"NY.GDP.MKTP.CD","value":"GDP (current US$)"},"country":{"id":"DE","value":"Germany"},"countryiso3code":"DEU","date":"2008","value":3808786022312.5,"unit":"","obs_status":"","decimal":0},{"indicator":{"id":"NY.GDP.MKTP.CD","value":"GDP (current US$)"},"country":{"id":"DE","value":"Germany"},"countryiso3code":"DEU","date":"2007","value":3484056680854.91,"unit":"","obs_status":"","decimal":0},{"indicator":{"id":"NY.GDP.MKTP.CD","value":"GDP (current US$)"},"country":{"id":"DE","value":"Germany"},"countryiso3code":"DEU","date":"2006","value":3046308753670.58,"unit":"","obs_status":"","decimal":0},{"indicator":{"id":"NY.GDP.MKTP.CD","value":"GDP (current US$)"},"country":{"id":"DE","value":"Germany"},"countryiso3code":"DEU","date":"2005","value":2893393187361.87,"unit":"","obs_status":"","decimal":0},{"indicator":{"id":"NY.GDP.MKTP.CD","value":"GDP (current US$)"},"country":{"id":"DE","value":"Germany"},"countryiso3code":"DEU","date":"2004","value":2852317768061.78,"unit":"","obs_status":"","decimal":0},{"indicator":{"id":"NY.GDP.MKTP.CD","value":"GDP (current US$)"},"country":{"id":"DE","value":"Germany"},"countryiso3code":"DEU","date":"2003","value":2534715518349.01,"unit":"","obs_status":"","decimal":0},{"indicator":{"id":"NY.GDP.MKTP.CD","value":"GDP (current US$)"},"country":{"id":"DE","value":"Germany"},"countryiso3code":"DEU","date":"2002","value":2102350798305.89,"unit":"","obs_status":"","decimal":0},{"indicator":{"id":"NY.GDP.MKTP.CD","value":"GDP (current US$)"},"country":{"id":"DE","value":"Germany"},"countryiso3code":"DEU","date":"2001","value":1966381496641.73,"unit":"","obs_status":"","decimal":0},{"indicator":{"id":"NY.GDP.MKTP.CD","value":"GDP (current US$)"},"country":{"id":"DE","value":"Germany"},"countryiso3code":"DEU","date":"2000","value":1966980701145.1,"unit":"","obs_status":"","decimal":0},{"indicator":{"id":"NY.GDP.MKTP.CD","value":"GDP (current US$)"},"country":{"id":"DE","value":"Germany"},"countryiso3code":"DEU","date":"1999","value":2213873468586.88,"unit":"","obs_status":"","decimal":0},{"indicator":{"id":"NY.GDP.MKTP.CD","value":"GDP (current US$)"},"country":{"id":"DE","value":"Germany"},"countryiso3code":"DEU","date":"1998","value":2247760364565.97,"unit":"","obs_status":"","decimal":0},{"indicator":{"id":"NY.GDP.MKTP.CD","value":"GDP (current US$)"},"country":{"id":"DE","value":"Germany"},"countryiso3code":"DEU","date":"1997","value":2218790886532.82,"unit":"","obs_status":"","decimal":0},{"indicator":{"id":"NY.GDP.MKTP.CD","value":"GDP (current US$)"},"country":{"id":"DE","value":"Germany"},"countryiso3code":"DEU","date":"1996","value":2506576553158.31,"unit":"","obs_status":"","decimal":0},{"indicator":{"id":"NY.GDP.MKTP.CD","value":"GDP (current US$)"},"country":{"id":"DE","value":"Germany"},"countryiso3code":"DEU","date":"1995","value":2593053091306.13,"unit":"","obs_status":"","decimal":0},{"indicator":{"id":"NY.GDP.MKTP.CD","value":"GDP (current US$)"},"country":{"id":"DE","value":"Germany"},"countryiso3code":"DEU","date":"1994","value":2215282632276.73,"unit":"","obs_status":"","decimal":0},{"indicator":{"id":"NY.GDP.MKTP.CD","value":"GDP (current US$)"},"country":{"id":"DE","value":"Germany"},"countryiso3code":"DEU","date":"1993","value":2078954217437.6,"unit":"","obs_status":"","decimal":0},{"indicator":{"id":"NY.GDP.MKTP.CD","value":"GDP (current US$)"},"country":{"id":"DE","value":"Germany"},"countryiso3code":"DEU","date":"1992","value":2141377582968.07,"unit":"","obs_status":"","decimal":0},{"indicator":{"id":"NY.GDP.MKTP.CD","value":"GDP (current US$)"},"country":{"id":"DE","value":"Germany"},"countryiso3code":"DEU","date":"1991","value":1875792575132.59,"unit":"","obs_status":"","decimal":0},{"indicator":{"id":"NY.GDP.MKTP.CD","value":"GDP (current US$)"},"country":{"id":"DE","value":"Germany"},"countryiso3code":"DEU","date":"1990","value":1778162195860.07,"unit":"","obs_status":"","decimal":0},{"indicator":{"id":"NY.GDP.MKTP.CD","value":"GDP (current US$)"},"country":{"id":"DE","value":"Germany"},"countryiso3code":"DEU","date":"1989","value":1404092925205.45,"unit":"","obs_status":"","decimal":0},{"indicator":{"id":"NY.GDP.MKTP.CD","value":"GDP (current US$)"},"country":{"id":"DE","value":"Germany"},"countryiso3code":"DEU","date":"1988","value":1406367016371.53,"unit":"","obs_status":"","decimal":0},{"indicator":{"id":"NY.GDP.MKTP.CD","value":"GDP (current US$)"},"country":{"id":"DE","value":"Germany"},"countryiso3code":"DEU","date":"1987","value":1302932318824.81,"unit":"","obs_status":"","decimal":0},{"indicator":{"id":"NY.GDP.MKTP.CD","value":"GDP (current US$)"},"country":{"id":"DE","value":"Germany"},"countryiso3code":"DEU","date":"1986","value":1050092624515.9,"unit":"","obs_status":"","decimal":0},{"indicator":{"id":"NY.GDP.MKTP.CD","value":"GDP (current US$)"},"country":{"id":"DE","value":"Germany"},"countryiso3code":"DEU","date":"1985","value":735218723093.277,"unit":"","obs_status":"","decimal":0},{"indicator":{"id":"NY.GDP.MKTP.CD","value":"GDP (current US$)"},"country":{"id":"DE","value":"Germany"},"countryiso3code":"DEU","date":"1984","value":727767760978.627,"unit":"","obs_status":"","decimal":0},{"indicator":{"id":"NY.GDP.MKTP.CD","value":"GDP (current US$)"},"country":{"id":"DE","value":"Germany"},"countryiso3code":"DEU","date":"1983","value":773507930294.906,"unit":"","obs_status":"","decimal":0},{"indicator":{"id":"NY.GDP.MKTP.CD","value":"GDP (current US$)"},"country":{"id":"DE","value":"Germany"},"countryiso3code":"DEU","date":"1982","value":779421633755.138,"unit":"","obs_status":"","decimal":0},{"indicator":{"id":"NY.GDP.MKTP.CD","value":"GDP (current US$)"},"country":{"id":"DE","value":"Germany"},"countryiso3code":"DEU","date":"1981","value":803404797057.551,"unit":"","obs_status":"","decimal":0},{"indicator":{"id":"NY.GDP.MKTP.CD","value":"GDP (current US$)"},"country":{"id":"DE","value":"Germany"},"countryiso3code":"DEU","date":"1980","value":953772499462.019,"unit":"","obs_status":"","decimal":0},{"indicator":{"id":"NY.GDP.MKTP.CD","value":"GDP (current US$)"},"country":{"id":"DE","value":"Germany"},"countryiso3code":"DEU","date":"1979","value":884574218333.155,"unit":"","obs_status":"","decimal":0},{"indicator":{"id":"NY.GDP.MKTP.CD","value":"GDP (current US$)"},"country":{"id":"DE","value":"Germany"},"countryiso3code":"DEU","date":"1978","value":743182891918.208,"unit":"","obs_status":"","decimal":0},{"indicator":{"id":"NY.GDP.MKTP.CD","value":"GDP (current US$)"},"country":{"id":"DE","value":"Germany"},"countryiso3code":"DEU","date":"1977","value":602698323085.993,"unit":"","obs_status":"","decimal":0},{"indicator":{"id":"NY.GDP.MKTP.CD","value":"GDP (current US$)"},"country":{"id":"DE","value":"Germany"},"countryiso3code":"DEU","date":"1976","value":521658712132.981,"unit":"","obs_status":"","decimal":0},{"indicator":{"id":"NY.GDP.MKTP.CD","value":"GDP (current US$)"},"country":{"id":"DE","value":"Germany"},"countryiso3code":"DEU","date":"1975","value":492434094920.105,"unit":"","obs_status":"","decimal":0},{"indicator":{"id":"NY.GDP.MKTP.CD","value":"GDP (current US$)"},"country":{"id":"DE","value":"Germany"},"countryiso3code":"DEU","date":"1974","value":446934971657.471,"unit":"","obs_status":"","decimal":0}]]